{
    "login": {
        "success": {
            "type": "object",
            "properties": {
                "data": {
                    "type": "object",
                    "properties": {
                        "message": {
                            "type": "string",
                            "example": "Login success"
                        },
                        "user": {
                            "type": "object",
                            "properties": {
                                "id": {
                                    "type": "string",
                                    "example": "30378f5e-b3ec-4958-891f-6916e266fb1e"
                                },
                                "name": {
                                    "type": "string",
                                    "example": "duy"
                                },
                                "email": {
                                    "type": "string",
                                    "example": "kduy121@gmail.com"
                                },
                                "socialite_id": {
                                    "type": "string",
                                    "example": null
                                },
                                "socialite_type": {
                                    "type": "string",
                                    "example": "EMAIL"
                                },
                                "device_info": {
                                    "type": "object",
                                    "properties": {
                                        "MODEL": {
                                            "type": "string",
                                            "example": "INE-LX2"
                                        },
                                        "RELEASE": {
                                            "type": "string",
                                            "example": "9"
                                        },
                                        "SDK_INT": {
                                            "type": "string",
                                            "example": "28"
                                        },
                                        "CODENAME": {
                                            "type": "string",
                                            "example": "REL"
                                        },
                                        "PLATFORM": {
                                            "type": "string",
                                            "example": "android"
                                        },
                                        "DEVICE_ID": {
                                            "type": "string",
                                            "example": "481fa388-f6fe-4aba-8afb-2e8b6a602a44"
                                        },
                                        "BUILD_TYPE": {
                                            "type": "string",
                                            "example": "debug"
                                        },
                                        "VERSION_CODE": {
                                            "type": "string",
                                            "example": "28145290"
                                        },
                                        "VERSION_NAME": {
                                            "type": "string",
                                            "example": "1.0"
                                        }
                                    }
                                },
                                "date_of_birth": {
                                    "type": "string",
                                    "example": "2023-08-10"
                                },
                                "gender": {
                                    "type": "string",
                                    "example": "male"
                                },
                                "created_by": {
                                    "type": "string",
                                    "example": null
                                },
                                "updated_by": {
                                    "type": "string",
                                    "example": null
                                },
                                "deleted_by": {
                                    "type": "string",
                                    "example": null
                                },
                                "user_name": {
                                    "type": "string",
                                    "example": "kduy121_gyhch"
                                },
                                "bio": {
                                    "type": "string",
                                    "example": null
                                },
                                "avatar_url": {
                                    "type": "string",
                                    "example": "localhost:8000/uploads/avatar_default.svg"
                                },
                                "interests": {
                                    "type": "array",
                                    "example": []
                                },
                                "areas": {
                                    "type": "array",
                                    "example": []
                                }
                            }
                        },
                        "token": {
                            "type": "string",
                            "example": "eyJ0eXAiOiJKV1QiLCJhbGciOiJIUzI1NiJ9..."
                        },
                        "refresh_token": {
                            "type": "string",
                            "example": "eyJ0eXAiOiJKV1QiLCJhbGciOiJIUzI1NiJ9..."
                        },
                        "expires_in": {
                            "type": "integer",
                            "example": 10000000
                        }
                    }
                }
            }
        },
        "fail": {
            "type": "object",
            "properties": {
                "data": {
                    "type": "object",
                    "example": {
                        "status": "fail",
                        "message": "Incorrect email or password",
                        "code": 30005
                    }
                }
            }
        }
    },
    "guest-login": {
        "type": "object",
        "properties": {
            "data": {
                "type": "object",
                "properties": {
                    "message": {
                        "type": "string",
                        "example": "Login success"
                    },
                    "user": {
                        "type": "object",
                        "properties": {
                            "name": {
                                "type": "string",
                                "example": "Guest User"
                            },
                            "device_info": {
                                "type": "string",
                                "example": ""
                            },
                            "gender": {
                                "type": "string",
                                "example": "other"
                            },
                            "date_of_birth": {
                                "type": "string",
                                "example": null
                            },
                            "socialite_type": {
                                "type": "string",
                                "example": "GUEST"
                            },
                            "id": {
                                "type": "string",
                                "example": "f874be4d-5427-4b22-9be9-affa8c40151e"
                            }
                        }
                    },
                    "token": {
                        "type": "string",
                        "example": "eyJ0eXAiOiJKV1QiLCJhbGciOiJIUzI1NiJ9..."
                    },
                    "refresh_token": {
                        "type": "string",
                        "example": ""
                    },
                    "expires_in": {
                        "type": "integer",
                        "example": 10000000
                    }
                }
            }
        }
    },
    "user-transformer": {
        "type": "object",
        "properties": {
            "data": {
                "type": "object",
                "properties": {
                    "id": {
                        "type": "string",
                        "example": "3f71df83-be30-4246-90a9-694f6e4c7726"
                    },
                    "name": {
                        "type": "string",
                        "example": "Guest User"
                    },
                    "email": {
                        "type": "null"
                    },
                    "socialite_id": {
                        "type": "null"
                    },
                    "socialite_type": {
                        "type": "string",
                        "example": "GUEST"
                    },
                    "date_of_birth": {
                        "type": "null"
                    },
                    "gender": {
                        "type": "string",
                        "example": "other"
                    },
                    "user_name": {
                        "type": "null"
                    },
                    "bio": {
                        "type": "null"
                    },
                    "avatar_url": {
                        "type": "string",
                        "example": "localhost:8000/uploads/avatar_default.svg"
                    },
                    "total_like": {
                        "type": "integer",
                        "example": 0
                    },
                    "total_following": {
                        "type": "integer",
                        "example": 0
                    },
                    "total_follower": {
                        "type": "integer",
                        "example": 0
                    },
                    "interests": {
                        "type": "array",
                        "items": {
                            "type": "object",
                            "properties": {
                                "id": {
                                    "type": "string",
                                    "example": "1147797a-b730-496a-8492-234fe4626096"
                                },
                                "created_at": {
                                    "type": "string",
                                    "example": "2023-07-10T11:41:49.000000Z"
                                },
                                "updated_at": {
                                    "type": "string",
                                    "example": "2023-07-10T11:41:49.000000Z"
                                },
                                "created_by": {
                                    "type": "string",
                                    "example": "c8add52c-3b52-4008-b662-f1b8381146f6"
                                },
                                "updated_by": {
                                    "type": "null"
                                },
                                "interest": {
                                    "type": "object",
                                    "properties": {
                                        "interest": {
                                            "type": "object",
                                            "properties": {
                                                "ja": {
                                                    "type": "string",
                                                    "example": ""
                                                },
                                                "en": {
                                                    "type": "string",
                                                    "example": "DIY"
                                                },
                                                "key": {
                                                    "type": "string",
                                                    "example": "diy"
                                                }
                                            }
                                        }
                                    }
                                },
                                "pivot": {
                                    "type": "object",
                                    "properties": {
                                        "user_id": {
                                            "type": "string",
                                            "example": "3f71df83-be30-4246-90a9-694f6e4c7726"
                                        },
                                        "interest_id": {
                                            "type": "string",
                                            "example": "1147797a-b730-496a-8492-234fe4626096"
                                        }
                                    }
                                }
                            }
                        }
                    },
                    "areas": {
                        "type": "array",
                        "items": {
                            "type": "object"
                        }
                    },
                    "videos": {
                        "type": "array",
                        "items": {
                            "type": "object"
                        }
                    },
                    "follower": {
                        "type": "null"
                    },
                    "following": {
                        "type": "null"
                    },
                    "collections": {
                        "type": "array",
                        "items": {
                            "type": "object"
                        }
                    },
                    "is_show_trending": {
                        "type": "boolean",
                        "example": true
                    },
                    "has_friend_video": {
                        "type": "boolean",
                        "example": false
                    },
                    "has_friend": {
                        "type": "boolean",
                        "example": false
                    },
                    "count_draft": {
                        "type": "integer",
                        "example": 0
                    },
                    "count_msg": {
                        "type": "integer",
                        "example": 0
                    }
                }
            }
        }
    },
    "logout": {
        "type": "object",
        "properties": {
            "data": {
                "type": "object",
                "example": {
                    "message": "Successfully logged out"
                }
            }
        }
    },
    "refresh": {
        "invalid": {
            "type": "object",
            "properties": {
                "error": {
                    "type": "string",
                    "example": "Refresh token invalid"
                }
            }
        },
        "success": {
            "type": "object",
            "properties": {
                "data": {
                    "type": "object",
                    "properties": {
                        "message": {
                            "type": "string",
                            "example": "Refresh Token Successfully"
                        },
                        "user": {
                            "type": "object",
                            "properties": {
                                "id": {
                                    "type": "string",
                                    "example": "bb777363-6a41-4816-9571-2c0c3a0b590d"
                                },
                                "name": {
                                    "type": "string",
                                    "example": "Guest User"
                                },
                                "email": {
                                    "type": "null"
                                },
                                "socialite_id": {
                                    "type": "null"
                                },
                                "socialite_type": {
                                    "type": "string",
                                    "example": "GUEST"
                                },
                                "device_info": {
                                    "type": "object",
                                    "properties": {
                                        "MODEL": {
                                            "type": "string",
                                            "example": "SM-M215F"
                                        },
                                        "RELEASE": {
                                            "type": "string",
                                            "example": "12"
                                        },
                                        "SDK_INT": {
                                            "type": "string",
                                            "example": "31"
                                        },
                                        "CODENAME": {
                                            "type": "string",
                                            "example": "REL"
                                        },
                                        "PLATFORM": {
                                            "type": "string",
                                            "example": "android"
                                        },
                                        "BUILD_TYPE": {
                                            "type": "string",
                                            "example": "debug"
                                        },
                                        "VERSION_CODE": {
                                            "type": "string",
                                            "example": "28145462"
                                        },
                                        "VERSION_NAME": {
                                            "type": "string",
                                            "example": "1.0"
                                        }
                                    }
                                },
                                "date_of_birth": {
                                    "type": "null"
                                },
                                "gender": {
                                    "type": "string",
                                    "example": "other"
                                },
                                "created_by": {
                                    "type": "null"
                                },
                                "updated_by": {
                                    "type": "null"
                                },
                                "deleted_by": {
                                    "type": "null"
                                },
                                "user_name": {
                                    "type": "null"
                                },
                                "bio": {
                                    "type": "null"
                                },
                                "avatar_url": {
                                    "type": "string",
                                    "example": "localhost:8000/uploads/avatar_default.svg"
                                }
                            }
                        },
                        "token": {
                            "type": "string",
                            "example": "eyJ0eXAiOiJKV1QiLCJhbGciOiJIUzI1NiJ9.eyJpc3MiOiJodHRwOi8vbG9jYWxob3N0OjgwMDAvYXBpL2F1dGgvcmVmcmVzaCIsImlhdCI6MTY5ODY1MzE4MiwiZXhwIjoxNjk5MjUzMTgyLCJuYmYiOjE2OTg2NTMxODIsImp0aSI6ImlLUmkwUm92dk5NMktuUWciLCJzdWIiOiJiYjc3NzM2My02YTQxLTQ4MTYtOTU3MS0yYzBjM2EwYjU5MGQiLCJwcnYiOiIyM2JkNWM4OTQ5ZjYwMGFkYjM5ZTcwMWM0MDA4NzJkYjdhNTk3NmY3In0.IzvBd2OIJFS-GYdXPshcEikppMTpbATisM_urxOx0eE"
                        },
                        "refresh_token": {
                            "type": "string",
                            "example": "eyJ0eXAiOiJKV1QiLCJhbGciOiJIUzI1NiJ9.eyJqdGkiOiJiYjc3NzM2My02YTQxLTQ4MTYtOTU3MS0yYzBjM2EwYjU5MGQiLCJpYXQiOjE2OTg2NTMxODIuMDg4MzcyLCJuYmYiOjE2OTg2NTMxODMuMDg4MzcyLCJleHAiOjE3MDM4MzcxODIuMDg4MzcyLCJmaW5nZXJfaGFzaCI6IjI4NWFiOTQ0OGQyNzUxZWU1N2VjZTdmNzYyYzM5MDk1Iiwic3ViX2lkIjoiYmI3NzczNjMtNmE0MS00ODE2LTk1NzEtMmMwYzNhMGI1OTBkIn0.VQA4TQDYwwax8jCttwzyNNovpkg3qS2JttH5Qe6URdk"
                        },
                        "expires_in": {
                            "type": "integer",
                            "example": 10000000
                        }
                    }
                }
            }
        }
    }
}