{
    "un-bookmark": {
        "type": "object",
        "properties": {
            "data": {
                "example": {
                    "room_id": "room-id",
                    "message": "Room: $room->id pin successful"
                }
            }
        }
    },
    "collection": {
        "type": "object",
        "properties": {
            "id": {
                "type": "string",
                "example": "some_id"
            },
            "name": {
                "type": "string",
                "example": "some_name"
            },
            "user_id": {
                "type": "string",
                "example": "some_user_id"
            },
            "public": {
                "type": "boolean",
                "example": true
            },
            "thumbnail": {
                "type": "string",
                "example": "some_thumbnail_url"
            },
            "video_count": {
                "type": "integer",
                "example": 5
            },
            "created_at": {
                "type": "string",
                "example": "2023-10-30T09:03:27.000000Z"
            },
            "updated_at": {
                "type": "string",
                "example": "2023-10-30T09:03:27.000000Z"
            }
        }
    },
    "delete": {
        "type": "object",
        "properties": {
            "message": {
                "example": "Message in Room: room_id delete successful"
            }
        }
    },
    "collection-video": {
        "properties": {
            "id": {
                "type": "string",
                "example": "some_id"
            },
            "user_id": {
                "type": "string",
                "example": "some_user_id"
            },
            "title": {
                "type": "string",
                "example": "some_title"
            },
            "description": {
                "type": "string",
                "example": "some_description"
            },
            "thumbnail": {
                "type": "string",
                "example": "some_thumbnail_url"
            },
            "status": {
                "type": "string",
                "example": "some_status"
            },
            "streaming_path": {
                "type": "string",
                "example": "some_streaming_path"
            },
            "meta": {
                "type": "object",
                "example": {
                    "key": "value"
                }
            },
            "author": {
                "type": "object",
                "properties": {
                    "id": {
                        "type": "string",
                        "example": "some_user_id"
                    },
                    "name": {
                        "type": "string",
                        "example": "some_name"
                    },
                    "user_name": {
                        "type": "string",
                        "example": "some_user_name"
                    },
                    "avatar_url": {
                        "type": "string",
                        "example": "some_avatar_url"
                    }
                }
            }
        }
    },
    "not-found": {
        "type": "object",
        "properties": {
            "error": {
                "type": "string",
                "example": "Video not found"
            }
        }
    },
    "video": {
        "type": "object",
        "properties": {
            "author": {
                "type": "object",
                "properties": {
                    "id": {
                        "type": "string",
                        "example": "some_user_id"
                    },
                    "name": {
                        "type": "string",
                        "example": "some_name"
                    },
                    "user_name": {
                        "type": "string",
                        "example": "some_user_name"
                    },
                    "follower": {
                        "type": "string",
                        "example": "some_follower_id"
                    },
                    "following": {
                        "type": "string",
                        "example": "some_following_id"
                    },
                    "avatar_url": {
                        "type": "string",
                        "example": "some_avatar_url"
                    }
                }
            },
            "video": {
                "type": "object",
                "properties": {
                    "id": {
                        "type": "string",
                        "example": "some_id"
                    },
                    "like": {
                        "type": "boolean",
                        "example": true
                    },
                    "is_bookmark": {
                        "type": "boolean",
                        "example": true
                    },
                    "total_like": {
                        "type": "integer",
                        "example": 10
                    },
                    "total_comment": {
                        "type": "integer",
                        "example": 5
                    },
                    "total_bookmark": {
                        "type": "integer",
                        "example": 8
                    },
                    "thumbnail": {
                        "type": "string",
                        "example": "some_thumbnail_url"
                    },
                    "description": {
                        "type": "string",
                        "example": "some_description"
                    },
                    "playAddr": {
                        "type": "string",
                        "example": "some_streaming_path"
                    },
                    "title": {
                        "type": "string",
                        "example": "some_title"
                    },
                    "meta": {
                        "type": "object",
                        "example": {
                            "key": "value"
                        }
                    },
                    "status": {
                        "type": "string",
                        "example": "some_status"
                    },
                    "created_at": {
                        "type": "string",
                        "example": "2023-10-30T09:03:27.000000Z"
                    },
                    "updated_at": {
                        "type": "string",
                        "example": "2023-10-30T09:03:27.000000Z"
                    }
                }
            }
        }
    }
}